{
  "aliasColors": {
    "avg4": "#f2c96d",
    "avg6": "#c15c17",
    "max4": "#5195ce",
    "max6": "#0a50a1",
    "min4": "#7eb26d",
    "min6": "#3f6833"
  },
  "bars": false,
  "dashLength": 10,
  "dashes": false,
  "datasource": "Influx",
  "fill": 1,
  "gridPos": {
    "h": 9,
    "w": 12,
    "x": 0,
    "y": 0
  },
  "id": 2,
  "interval": "1min",
  "legend": {
    "avg": false,
    "current": false,
    "max": false,
    "min": false,
    "show": true,
    "total": false,
    "values": false
  },
  "lines": true,
  "linewidth": 1,
  "links": [],
  "nullPointMode": "null",
  "percentage": false,
  "pointradius": 5,
  "points": false,
  "renderer": "flot",
  "seriesOverrides": [
    {
      "alias": "loss4",
      "bars": true,
      "color": "#890f02",
      "lines": false,
      "pointradius": 1,
      "points": true,
      "yaxis": 2
    },
    {
      "alias": "max4",
      "fillBelowTo": "min4",
      "lines": false
    },
    {
      "alias": "avg4",
      "fill": 0,
      "fillBelowTo": "min4",
      "lines": false,
      "linewidth": 2
    },
    {
      "alias": "min4",
      "lines": false
    },
    {
      "alias": "loss6",
      "bars": true,
      "color": "#6d1f62",
      "lines": false,
      "pointradius": 1,
      "points": true,
      "yaxis": 2
    },
    {
      "alias": "max6",
      "fillBelowTo": "min6",
      "lines": false
    },
    {
      "alias": "avg6",
      "fill": 0,
      "fillBelowTo": "min6",
      "lines": false,
      "linewidth": 2
    },
    {
      "alias": "min6",
      "lines": false
    }
  ],
  "spaceLength": 10,
  "stack": false,
  "steppedLine": false,
  "targets": [
    {
      "alias": "min4",
      "groupBy": [
        {
          "params": [
            "$__interval"
          ],
          "type": "time"
        },
        {
          "params": [
            "null"
          ],
          "type": "fill"
        }
      ],
      "measurement": "ping",
      "orderByTime": "ASC",
      "policy": "default",
      "query": "SELECT \"value\" FROM \"ping\" WHERE (\"dest\" = 'openstreetmap.rezopole.net' AND \"af\" = 'ipv4' AND \"type\" = 'min') AND $timeFilter",
      "rawQuery": true,
      "refId": "A",
      "resultFormat": "time_series",
      "select": [
        [
          {
            "params": [
              "value"
            ],
            "type": "field"
          }
        ]
      ],
      "tags": [
        {
          "key": "dest",
          "operator": "=",
          "value": "openstreetmap.rezopole.net"
        },
        {
          "condition": "AND",
          "key": "af",
          "operator": "=",
          "value": "ipv4"
        },
        {
          "condition": "AND",
          "key": "type",
          "operator": "=",
          "value": "min"
        }
      ]
    },
    {
      "alias": "avg4",
      "groupBy": [],
      "measurement": "ping",
      "orderByTime": "ASC",
      "policy": "default",
      "query": "SELECT \"value\" FROM \"ping\" WHERE (\"dest\" = 'openstreetmap.rezopole.net' AND \"af\" = 'ipv4' AND \"type\" = 'avg') AND $timeFilter",
      "rawQuery": true,
      "refId": "B",
      "resultFormat": "time_series",
      "select": [
        [
          {
            "params": [
              "value"
            ],
            "type": "field"
          }
        ]
      ],
      "tags": [
        {
          "key": "dest",
          "operator": "=",
          "value": "openstreetmap.rezopole.net"
        },
        {
          "condition": "AND",
          "key": "af",
          "operator": "=",
          "value": "ipv4"
        },
        {
          "condition": "AND",
          "key": "type",
          "operator": "=",
          "value": "avg"
        }
      ]
    },
    {
      "alias": "max4",
      "groupBy": [],
      "measurement": "ping",
      "orderByTime": "ASC",
      "policy": "default",
      "query": "SELECT \"value\" FROM \"ping\" WHERE (\"dest\" = 'openstreetmap.rezopole.net' AND \"af\" = 'ipv4' AND \"type\" = 'max') AND $timeFilter",
      "rawQuery": true,
      "refId": "C",
      "resultFormat": "time_series",
      "select": [
        [
          {
            "params": [
              "value"
            ],
            "type": "field"
          }
        ]
      ],
      "tags": [
        {
          "key": "dest",
          "operator": "=",
          "value": "openstreetmap.rezopole.net"
        },
        {
          "condition": "AND",
          "key": "af",
          "operator": "=",
          "value": "ipv4"
        },
        {
          "condition": "AND",
          "key": "type",
          "operator": "=",
          "value": "max"
        }
      ]
    },
    {
      "alias": "loss4",
      "groupBy": [],
      "measurement": "ping",
      "orderByTime": "ASC",
      "policy": "default",
      "query": "SELECT \"value\" FROM \"ping\" WHERE (\"dest\" = 'openstreetmap.rezopole.net' AND \"af\" = 'ipv4' AND \"type\" = 'loss') AND $timeFilter",
      "rawQuery": true,
      "refId": "D",
      "resultFormat": "time_series",
      "select": [
        [
          {
            "params": [
              "value"
            ],
            "type": "field"
          }
        ]
      ],
      "tags": [
        {
          "key": "dest",
          "operator": "=",
          "value": "openstreetmap.rezopole.net"
        },
        {
          "condition": "AND",
          "key": "af",
          "operator": "=",
          "value": "ipv4"
        },
        {
          "condition": "AND",
          "key": "type",
          "operator": "=",
          "value": "loss"
        }
      ]
    },
    {
      "alias": "min6",
      "groupBy": [
        {
          "params": [
            "$__interval"
          ],
          "type": "time"
        },
        {
          "params": [
            "null"
          ],
          "type": "fill"
        }
      ],
      "measurement": "ping",
      "orderByTime": "ASC",
      "policy": "default",
      "query": "SELECT \"value\" FROM \"ping\" WHERE (\"dest\" = 'openstreetmap.rezopole.net' AND \"af\" = 'ipv6' AND \"type\" = 'min') AND $timeFilter",
      "rawQuery": true,
      "refId": "E",
      "resultFormat": "time_series",
      "select": [
        [
          {
            "params": [
              "value"
            ],
            "type": "field"
          }
        ]
      ],
      "tags": [
        {
          "key": "dest",
          "operator": "=",
          "value": "openstreetmap.rezopole.net"
        },
        {
          "condition": "AND",
          "key": "af",
          "operator": "=",
          "value": "ipv4"
        },
        {
          "condition": "AND",
          "key": "type",
          "operator": "=",
          "value": "min"
        }
      ]
    },
    {
      "alias": "avg6",
      "groupBy": [
        {
          "params": [
            "$__interval"
          ],
          "type": "time"
        },
        {
          "params": [
            "null"
          ],
          "type": "fill"
        }
      ],
      "measurement": "ping",
      "orderByTime": "ASC",
      "policy": "default",
      "query": "SELECT \"value\" FROM \"ping\" WHERE (\"dest\" = 'openstreetmap.rezopole.net' AND \"af\" = 'ipv6' AND \"type\" = 'min') AND $timeFilter",
      "rawQuery": true,
      "refId": "F",
      "resultFormat": "time_series",
      "select": [
        [
          {
            "params": [
              "value"
            ],
            "type": "field"
          }
        ]
      ],
      "tags": [
        {
          "key": "dest",
          "operator": "=",
          "value": "openstreetmap.rezopole.net"
        },
        {
          "condition": "AND",
          "key": "af",
          "operator": "=",
          "value": "ipv4"
        },
        {
          "condition": "AND",
          "key": "type",
          "operator": "=",
          "value": "min"
        }
      ]
    },
    {
      "alias": "max6",
      "groupBy": [
        {
          "params": [
            "$__interval"
          ],
          "type": "time"
        },
        {
          "params": [
            "null"
          ],
          "type": "fill"
        }
      ],
      "measurement": "ping",
      "orderByTime": "ASC",
      "policy": "default",
      "query": "SELECT \"value\" FROM \"ping\" WHERE (\"dest\" = 'openstreetmap.rezopole.net' AND \"af\" = 'ipv6' AND \"type\" = 'max') AND $timeFilter",
      "rawQuery": true,
      "refId": "G",
      "resultFormat": "time_series",
      "select": [
        [
          {
            "params": [
              "value"
            ],
            "type": "field"
          }
        ]
      ],
      "tags": [
        {
          "key": "dest",
          "operator": "=",
          "value": "openstreetmap.rezopole.net"
        },
        {
          "condition": "AND",
          "key": "af",
          "operator": "=",
          "value": "ipv4"
        },
        {
          "condition": "AND",
          "key": "type",
          "operator": "=",
          "value": "min"
        }
      ]
    },
    {
      "alias": "loss6",
      "groupBy": [
        {
          "params": [
            "$__interval"
          ],
          "type": "time"
        },
        {
          "params": [
            "null"
          ],
          "type": "fill"
        }
      ],
      "measurement": "ping",
      "orderByTime": "ASC",
      "policy": "default",
      "query": "SELECT \"value\" FROM \"ping\" WHERE (\"dest\" = 'openstreetmap.rezopole.net' AND \"af\" = 'ipv6' AND \"type\" = 'loss') AND $timeFilter",
      "rawQuery": true,
      "refId": "H",
      "resultFormat": "time_series",
      "select": [
        [
          {
            "params": [
              "value"
            ],
            "type": "field"
          }
        ]
      ],
      "tags": [
        {
          "key": "dest",
          "operator": "=",
          "value": "openstreetmap.rezopole.net"
        },
        {
          "condition": "AND",
          "key": "af",
          "operator": "=",
          "value": "ipv4"
        },
        {
          "condition": "AND",
          "key": "type",
          "operator": "=",
          "value": "min"
        }
      ]
    }
  ],
  "thresholds": [],
  "timeFrom": null,
  "timeShift": null,
  "title": "Ping Rezopole",
  "tooltip": {
    "shared": true,
    "sort": 0,
    "value_type": "individual"
  },
  "type": "graph",
  "xaxis": {
    "buckets": null,
    "mode": "time",
    "name": null,
    "show": true,
    "values": []
  },
  "yaxes": [
    {
      "format": "short",
      "label": null,
      "logBase": 1,
      "max": null,
      "min": null,
      "show": true
    },
    {
      "format": "percent",
      "label": null,
      "logBase": 1,
      "max": null,
      "min": "0",
      "show": true
    }
  ],
  "yaxis": {
    "align": false,
    "alignLevel": null
  }
}